…
How many stations are ADA compliant?

``` r
station_ada = 
  tibble(
    station_name = pull(nyc_df,station_name),
    ada = as.numeric(pull(nyc_df,ada)),
           ) 
filter(station_ada, ada == 1)
```

    ## # A tibble: 468 x 2
    ##    station_name               ada
    ##    <chr>                    <dbl>
    ##  1 Atlantic Av-Barclays Ctr     1
    ##  2 DeKalb Av                    1
    ##  3 DeKalb Av                    1
    ##  4 DeKalb Av                    1
    ##  5 DeKalb Av                    1
    ##  6 DeKalb Av                    1
    ##  7 DeKalb Av                    1
    ##  8 Pacific St                   1
    ##  9 Pacific St                   1
    ## 10 Grand Central                1
    ## # … with 458 more rows
…
How many distinct stations serve the A train? Of the stations that serve
the A train, how many are ADA compliant?

``` r
reformat_nyc_df1 = 
  filter(reformat_nyc_df, route_number == "A") 
distinct(reformat_nyc_df1,station_name)
```

    ## # A tibble: 56 x 1
    ##    station_name                 
    ##    <chr>                        
    ##  1 Times Square                 
    ##  2 125th St                     
    ##  3 145th St                     
    ##  4 14th St                      
    ##  5 168th St - Washington Heights
    ##  6 175th St                     
    ##  7 181st St                     
    ##  8 190th St                     
    ##  9 34th St                      
    ## 10 42nd St                      
    ## # … with 46 more rows
…
